{"box_type":"C","case_no":"12344","package_type":"CORRUGATED BOX 7","package_date":"22-05-2019","bobbin_count":"1","weight_log":"57512|","moisture_regain":"0","box_weight":"1.6","packing_box":"undefined","material_type":"normal","dispatch_date":"no","expiry_date":"2019-11-21","inset_weight":"0.2"}
{"box_type":"BS","case_no":"12343","package_type":"CORRUGATED BOX 6","package_date":"22-05-2019","bobbin_count":"1","weight_log":"57512|","moisture_regain":"0","box_weight":"1.1","packing_box":"undefined","material_type":"normal","dispatch_date":"no","expiry_date":"2019-11-21","inset_weight":"0.2"}
{"box_type":"BIS","case_no":"12343","package_type":"CORRUGATED BOX 5","package_date":"22-05-2019","bobbin_count":"1","weight_log":"57512|","moisture_regain":"0","box_weight":"1.0","packing_box":"undefined","material_type":"normal","dispatch_date":"no","expiry_date":"2019-11-21","inset_weight":"0.2"}
{"box_type":"B","case_no":"12344","package_type":"BOBBIN","package_date":"22-05-2019","bobbin_count":"1","weight_log":"57512|","moisture_regain":"0","box_weight":"1.1","packing_box":"CORRUGATED BOX 6","material_type":"normal","dispatch_date":"no","expiry_date":"2019-11-21","inset_weight":"0.2"}
{"box_type":"BYIS","case_no":"90001","package_type":"BOBBIN","package_date":"22-05-2019","bobbin_count":"1","weight_log":"57511|","moisture_regain":"0.2","box_weight":"1.4","packing_box":"CORRUGATED BOX 3","material_type":"normal","dispatch_date":"no","expiry_date":"2019-11-21","inset_weight":"0.2"}
